<?xml version="1.0" encoding="utf-8"?>
<!-- Generator: Adobe Illustrator 25.0.1, SVG Export Plug-In . SVG Version: 6.00 Build 0)  -->
<svg version="1.1" id="Layer_1" xmlns="http://www.w3.org/2000/svg" xmlns:xlink="http://www.w3.org/1999/xlink" x="0px" y="0px"
	 viewBox="0 0 1361 412.8" style="enable-background:new 0 0 1361 412.8;" xml:space="preserve">
<style type="text/css">
	.st0{font-family:'SFProDisplay-Bold';}
	.st1{font-size:254.0109px;}
	.st2{letter-spacing:-7;}
</style>
<g id="Layer_2_1_">
	<g id="Layer_1-2">
		<text transform="matrix(1 0 0 1 12.6081 272.5899)" class="st0 st1">berbaju</text>
		<text transform="matrix(1 0 0 1 898.1877 272.5899)" class="st0 st1 st2">.</text>
		<text transform="matrix(1 0 0 1 961.3186 272.5899)" class="st0 st1">co</text>
		<path d="M1305,200.9c-22.5-0.6-41.2,17.2-41.7,39.7s17.2,41.2,39.7,41.7c22.5,0.6,41.2-17.2,41.7-39.7c0,0,0,0,0,0
			c0.6-22.5-17.1-41.1-39.6-41.7C1305,200.9,1305,200.9,1305,200.9z M1303.9,274.6c-18.2,0-33-14.8-33-33c0-18.2,14.8-33,33-33
			c18.2,0,33,14.8,33,33c0,0,0,0.1,0,0.1C1336.9,260,1322.1,274.7,1303.9,274.6L1303.9,274.6z"/>
		<path d="M1308.2,245.4l1.4-0.5c5-1.8,8.2-5,8.6-10.5c0.7-4.9-1.9-9.7-6.4-11.8c-2.7-1.2-5.6-1.8-8.5-1.8
			c-5.2-0.1-10.5-0.1-15.8-0.2h-0.5c0,0.4,0,0.8,0,1.2v39.5c0,0.3,0,0.6,0,0.9c0,0.2,0.3,0.5,0.4,0.5c2.4,0,4.8,0,7.2,0v-16.4
			c1.5,0,2.9,0,4.4,0c0.6-0.1,1.2,0.2,1.5,0.8c3.5,5,6.9,9.9,10.5,14.9c0.2,0.4,0.6,0.6,1,0.7c2.7,0,5.4,0,8.2,0
			c0.1,0,0.3-0.1,0.4-0.1C1316.6,256.9,1312.4,251.2,1308.2,245.4z M1302.8,239.7c-2.6,0.1-5.2,0-7.9,0V227
			c3.7,0.1,7.4-0.4,11.1,0.5c2.5,0.3,4.4,2.5,4.5,5c0.4,2.8-1.2,5.5-3.9,6.3C1305.3,239.4,1304,239.7,1302.8,239.7L1302.8,239.7z"/>
	</g>
</g>
</svg>
